{
	"id": "5d2ddd9a-88f8-47b9-af66-f5600f0495b7",
	"name": "envData",
	"values": [
		{
			"key": "Baseurl",
			"value": "https://serverest.dev",
			"type": "default",
			"enabled": true
		},
		{
			"key": "nome",
			"value": "Fulano da Silva",
			"type": "default",
			"enabled": true
		},
		{
			"key": "email",
			"value": "beltrano@qa.com.br",
			"type": "default",
			"enabled": true
		},
		{
			"key": "password",
			"value": "teste",
			"type": "default",
			"enabled": true
		},
		{
			"key": "administrador",
			"value": "true",
			"type": "default",
			"enabled": true
		},
		{
			"key": "_id",
			"value": "0uxuPY0cbmQhpEz1",
			"type": "default",
			"enabled": true
		}
	],
	"_postman_variable_scope": "environment",
	"_postman_exported_at": "2022-02-11T19:00:27.005Z",
	"_postman_exported_using": "Postman/9.13.1"
}